<svg width="18" height="17" viewBox="0 0 18 17" fill="none" xmlns="http://www.w3.org/2000/svg">
<path opacity="0.75" d="M15.71 10.2941C15.5217 10.1058 15.2663 9.99998 15 9.99998C14.7337 9.99998 14.4783 10.1058 14.29 10.2941C14.1017 10.4824 13.9959 10.7378 13.9959 11.0041C13.9959 11.2704 14.1017 11.5258 14.29 11.7141L14.58 12.0041H13C11.9391 12.0041 10.9217 11.5827 10.1716 10.8325C9.42143 10.0824 9 9.06494 9 8.00408C9 6.94321 9.42143 5.92579 10.1716 5.17565C10.9217 4.4255 11.9391 4.00408 13 4.00408H14.59L14.29 4.29408C14.1963 4.38704 14.1219 4.49764 14.0711 4.6195C14.0203 4.74136 13.9942 4.87206 13.9942 5.00408C13.9942 5.13609 14.0203 5.26679 14.0711 5.38865C14.1219 5.51051 14.1963 5.62111 14.29 5.71408C14.3834 5.80676 14.4943 5.88008 14.6161 5.92985C14.7379 5.97961 14.8684 6.00484 15 6.00408C15.1316 6.00484 15.2621 5.97961 15.3839 5.92985C15.5057 5.88008 15.6166 5.80676 15.71 5.71408L17.71 3.71408C17.8027 3.62064 17.876 3.50982 17.9258 3.38798C17.9755 3.26615 18.0008 3.13568 18 3.00408C18.0008 2.87247 17.9755 2.74201 17.9258 2.62017C17.876 2.49833 17.8027 2.38752 17.71 2.29408L15.71 0.294076C15.6168 0.200838 15.5061 0.126877 15.3842 0.076417C15.2624 0.0259566 15.1319 -1.52588e-05 15 -1.52588e-05C14.7337 -1.52588e-05 14.4783 0.105773 14.29 0.294076C14.1017 0.48238 13.9959 0.737775 13.9959 1.00408C13.9959 1.27038 14.1017 1.52577 14.29 1.71408L14.58 2.00408H13C12.0093 2.0048 11.0342 2.25084 10.1617 2.72023C9.28921 3.18962 8.54655 3.86775 8 4.69408C7.45345 3.86775 6.71079 3.18962 5.83832 2.72023C4.96585 2.25084 3.99072 2.0048 3 2.00408H1C0.734784 2.00408 0.48043 2.10943 0.292893 2.29697C0.105357 2.48451 0 2.73886 0 3.00408C0 3.26929 0.105357 3.52365 0.292893 3.71118C0.48043 3.89872 0.734784 4.00408 1 4.00408H3C4.06087 4.00408 5.07828 4.4255 5.82843 5.17565C6.57857 5.92579 7 6.94321 7 8.00408C7 9.06494 6.57857 10.0824 5.82843 10.8325C5.07828 11.5827 4.06087 12.0041 3 12.0041H1C0.734784 12.0041 0.48043 12.1094 0.292893 12.297C0.105357 12.4845 0 12.7389 0 13.0041C0 13.2693 0.105357 13.5236 0.292893 13.7112C0.48043 13.8987 0.734784 14.0041 1 14.0041H3C3.99072 14.0034 4.96585 13.7573 5.83832 13.2879C6.71079 12.8185 7.45345 12.1404 8 11.3141C8.54655 12.1404 9.28921 12.8185 10.1617 13.2879C11.0342 13.7573 12.0093 14.0034 13 14.0041H14.59L14.29 14.2941C14.1963 14.387 14.1219 14.4976 14.0711 14.6195C14.0203 14.7414 13.9942 14.8721 13.9942 15.0041C13.9942 15.1361 14.0203 15.2668 14.0711 15.3887C14.1219 15.5105 14.1963 15.6211 14.29 15.7141C14.3834 15.8068 14.4943 15.8801 14.6161 15.9298C14.7379 15.9796 14.8684 16.0048 15 16.0041C15.1316 16.0048 15.2621 15.9796 15.3839 15.9298C15.5057 15.8801 15.6166 15.8068 15.71 15.7141L17.71 13.7141C17.8027 13.6206 17.876 13.5098 17.9258 13.388C17.9755 13.2661 18.0008 13.1357 18 13.0041C18.0008 12.8725 17.9755 12.742 17.9258 12.6202C17.876 12.4983 17.8027 12.3875 17.71 12.2941L15.71 10.2941Z" fill="#818586"/>
</svg>
